…
# Using `filter`

```r
filter(congress_age, congress == 80)
```

```
## # A tibble: 555 x 13
##    congress chamber bioguide firstname middlename  lastname suffix
##       <int>   <chr>    <chr>     <chr>      <chr>     <chr>  <chr>
##  1       80   house  M000112    Joseph  Jefferson Mansfield   <NA>
##  2       80   house  D000448    Robert        Lee  Doughton   <NA>
##  3       80   house  S000001    Adolph    Joachim    Sabath   <NA>
##  4       80   house  E000023   Charles     Aubrey     Eaton   <NA>
##  5       80   house  L000296   William       <NA>     Lewis   <NA>
##  6       80   house  G000017     James         A. Gallagher   <NA>
##  7       80   house  W000265   Richard     Joseph     Welch   <NA>
##  8       80   house  B000565       Sol       <NA>     Bloom   <NA>
##  9       80   house  H000943    Merlin       <NA>      Hull   <NA>
## 10       80   house  G000169   Charles   Laceille   Gifford   <NA>
## # ... with 545 more rows, and 6 more variables: birthday <date>,
## #   state <chr>, party <chr>, incumbent <lgl>, termstart <date>, age <dbl>
```
…
# Filter character variables

```r
senate <- filter(congress_age, chamber == 'senate')
```

# Combine Operations - AND

```r
filter(congress_age, congress == 80, chamber == 'senate')
```

```
## # A tibble: 102 x 13
##    congress chamber bioguide firstname middlename lastname suffix
##       <int>   <chr>    <chr>     <chr>      <chr>    <chr>  <chr>
##  1       80  senate  C000133    Arthur       <NA>   Capper   <NA>
##  2       80  senate  G000418  Theodore    Francis    Green   <NA>
##  3       80  senate  M000499   Kenneth    Douglas McKellar   <NA>
##  4       80  senate  R000112     Clyde     Martin     Reed   <NA>
##  5       80  senate  M000895    Edward       Hall    Moore   <NA>
##  6       80  senate  O000146      John     Holmes  Overton   <NA>
##  7       80  senate  M001108     James     Edward   Murray   <NA>
##  8       80  senate  M000308   Patrick    Anthony McCarran   <NA>
##  9       80  senate  T000165     Elmer       <NA>   Thomas   <NA>
## 10       80  senate  W000021    Robert  Ferdinand   Wagner   <NA>
## # ... with 92 more rows, and 6 more variables: birthday <date>,
## #   state <chr>, party <chr>, incumbent <lgl>, termstart <date>, age <dbl>
```

# Equivalent AND Statement

```r
filter(congress_age, congress == 80 & chamber == 'senate')
```

```
## # A tibble: 102 x 13
##    congress chamber bioguide firstname middlename lastname suffix
##       <int>   <chr>    <chr>     <chr>      <chr>    <chr>  <chr>
##  1       80  senate  C000133    Arthur       <NA>   Capper   <NA>
##  2       80  senate  G000418  Theodore    Francis    Green   <NA>
##  3       80  senate  M000499   Kenneth    Douglas McKellar   <NA>
##  4       80  senate  R000112     Clyde     Martin     Reed   <NA>
##  5       80  senate  M000895    Edward       Hall    Moore   <NA>
##  6       80  senate  O000146      John     Holmes  Overton   <NA>
##  7       80  senate  M001108     James     Edward   Murray   <NA>
##  8       80  senate  M000308   Patrick    Anthony McCarran   <NA>
##  9       80  senate  T000165     Elmer       <NA>   Thomas   <NA>
## 10       80  senate  W000021    Robert  Ferdinand   Wagner   <NA>
## # ... with 92 more rows, and 6 more variables: birthday <date>,
## #   state <chr>, party <chr>, incumbent <lgl>, termstart <date>, age <dbl>
```

# Filter - OR

```r
filter(congress_age, congress == 80 | congress == 81)
```

```
## # A tibble: 1,112 x 13
##    congress chamber bioguide firstname middlename  lastname suffix
##       <int>   <chr>    <chr>     <chr>      <chr>     <chr>  <chr>
##  1       80   house  M000112    Joseph  Jefferson Mansfield   <NA>
##  2       80   house  D000448    Robert        Lee  Doughton   <NA>
##  3       80   house  S000001    Adolph    Joachim    Sabath   <NA>
##  4       80   house  E000023   Charles     Aubrey     Eaton   <NA>
##  5       80   house  L000296   William       <NA>     Lewis   <NA>
##  6       80   house  G000017     James         A. Gallagher   <NA>
##  7       80   house  W000265   Richard     Joseph     Welch   <NA>
##  8       80   house  B000565       Sol       <NA>     Bloom   <NA>
##  9       80   house  H000943    Merlin       <NA>      Hull   <NA>
## 10       80   house  G000169   Charles   Laceille   Gifford   <NA>
## # ... with 1,102 more rows, and 6 more variables: birthday <date>,
## #   state <chr>, party <chr>, incumbent <lgl>, termstart <date>, age <dbl>
```

# `%in%`

```r
filter(congress_age, congress %in% c(80, 81))
```

```
## # A tibble: 1,112 x 13
##    congress chamber bioguide firstname middlename  lastname suffix
##       <int>   <chr>    <chr>     <chr>      <chr>     <chr>  <chr>
##  1       80   house  M000112    Joseph  Jefferson Mansfield   <NA>
##  2       80   house  D000448    Robert        Lee  Doughton   <NA>
##  3       80   house  S000001    Adolph    Joachim    Sabath   <NA>
##  4       80   house  E000023   Charles     Aubrey     Eaton   <NA>
##  5       80   house  L000296   William       <NA>     Lewis   <NA>
##  6       80   house  G000017     James         A. Gallagher   <NA>
##  7       80   house  W000265   Richard     Joseph     Welch   <NA>
##  8       80   house  B000565       Sol       <NA>     Bloom   <NA>
##  9       80   house  H000943    Merlin       <NA>      Hull   <NA>
## 10       80   house  G000169   Charles   Laceille   Gifford   <NA>
## # ... with 1,102 more rows, and 6 more variables: birthday <date>,
## #   state <chr>, party <chr>, incumbent <lgl>, termstart <date>, age <dbl>
```

# Not Operator

```r
filter(congress_age, congress != 80)
```

```
## # A tibble: 18,080 x 13
##    congress chamber bioguide firstname middlename lastname suffix
##       <int>   <chr>    <chr>     <chr>      <chr>    <chr>  <chr>
##  1       81   house  D000448    Robert        Lee Doughton   <NA>
##  2       81   house  S000001    Adolph    Joachim   Sabath   <NA>
##  3       81   house  E000023   Charles     Aubrey    Eaton   <NA>
##  4       81   house  W000265   Richard     Joseph    Welch   <NA>
##  5       81   house  B000565       Sol       <NA>    Bloom   <NA>
##  6       81   house  H000943    Merlin       <NA>     Hull   <NA>
##  7       81   house  B000545  Schuyler       Otis    Bland   <NA>
##  8       81   house  K000138      John      Hosea     Kerr   <NA>
##  9       81   house  C000932    Robert       <NA>  Crosser   <NA>
## 10       81   house  K000039      John       <NA>      Kee   <NA>
## # ... with 18,070 more rows, and 6 more variables: birthday <date>,
## #   state <chr>, party <chr>, incumbent <lgl>, termstart <date>, age <dbl>
```

# Not Operator 2

```r
filter(congress_age, congress == 80 & !chamber == 'senate')
```

```
## # A tibble: 453 x 13
##    congress chamber bioguide firstname middlename  lastname suffix
##       <int>   <chr>    <chr>     <chr>      <chr>     <chr>  <chr>
##  1       80   house  M000112    Joseph  Jefferson Mansfield   <NA>
##  2       80   house  D000448    Robert        Lee  Doughton   <NA>
##  3       80   house  S000001    Adolph    Joachim    Sabath   <NA>
##  4       80   house  E000023   Charles     Aubrey     Eaton   <NA>
##  5       80   house  L000296   William       <NA>     Lewis   <NA>
##  6       80   house  G000017     James         A. Gallagher   <NA>
##  7       80   house  W000265   Richard     Joseph     Welch   <NA>
##  8       80   house  B000565       Sol       <NA>     Bloom   <NA>
##  9       80   house  H000943    Merlin       <NA>      Hull   <NA>
## 10       80   house  G000169   Charles   Laceille   Gifford   <NA>
## # ... with 443 more rows, and 6 more variables: birthday <date>,
## #   state <chr>, party <chr>, incumbent <lgl>, termstart <date>, age <dbl>
```

# Working with logicals

```r
filter(congress_age, incumbent)
```

```
## # A tibble: 15,698 x 13
##    congress chamber bioguide firstname middlename  lastname suffix
##       <int>   <chr>    <chr>     <chr>      <chr>     <chr>  <chr>
##  1       80   house  M000112    Joseph  Jefferson Mansfield   <NA>
##  2       80   house  D000448    Robert        Lee  Doughton   <NA>
##  3       80   house  S000001    Adolph    Joachim    Sabath   <NA>
##  4       80   house  E000023   Charles     Aubrey     Eaton   <NA>
##  5       80   house  W000265   Richard     Joseph     Welch   <NA>
##  6       80   house  B000565       Sol       <NA>     Bloom   <NA>
##  7       80   house  H000943    Merlin       <NA>      Hull   <NA>
##  8       80   house  G000169   Charles   Laceille   Gifford   <NA>
##  9       80   house  B000545  Schuyler       Otis     Bland   <NA>
## 10       80   house  R000358      John   Marshall   Robsion   <NA>
## # ... with 15,688 more rows, and 6 more variables: birthday <date>,
## #   state <chr>, party <chr>, incumbent <lgl>, termstart <date>, age <dbl>
```
…
# Using `arrange`

```r
arrange(congress_age, state)
```

```
## # A tibble: 18,635 x 13
##    congress chamber bioguide firstname middlename lastname suffix
##       <int>   <chr>    <chr>     <chr>      <chr>    <chr>  <chr>
##  1       80   house  B000201    Edward      Lewis Bartlett   <NA>
##  2       81   house  B000201    Edward      Lewis Bartlett   <NA>
##  3       82   house  B000201    Edward      Lewis Bartlett   <NA>
##  4       83   house  B000201    Edward      Lewis Bartlett   <NA>
##  5       84   house  B000201    Edward      Lewis Bartlett   <NA>
##  6       85   house  B000201    Edward      Lewis Bartlett   <NA>
##  7       86   house  R000282     Ralph     Julian   Rivers   <NA>
##  8       86  senate  G000508    Ernest       <NA> Gruening   <NA>
##  9       86  senate  B000201    Edward      Lewis Bartlett   <NA>
## 10       87   house  R000282     Ralph     Julian   Rivers   <NA>
## # ... with 18,625 more rows, and 6 more variables: birthday <date>,
## #   state <chr>, party <chr>, incumbent <lgl>, termstart <date>, age <dbl>
```

# Add more variables

```r
arrange(congress_age, state, party)
```

```
## # A tibble: 18,635 x 13
##    congress chamber bioguide firstname middlename lastname suffix
##       <int>   <chr>    <chr>     <chr>      <chr>    <chr>  <chr>
##  1       80   house  B000201    Edward      Lewis Bartlett   <NA>
##  2       81   house  B000201    Edward      Lewis Bartlett   <NA>
##  3       82   house  B000201    Edward      Lewis Bartlett   <NA>
##  4       83   house  B000201    Edward      Lewis Bartlett   <NA>
##  5       84   house  B000201    Edward      Lewis Bartlett   <NA>
##  6       85   house  B000201    Edward      Lewis Bartlett   <NA>
##  7       86   house  R000282     Ralph     Julian   Rivers   <NA>
##  8       86  senate  G000508    Ernest       <NA> Gruening   <NA>
##  9       86  senate  B000201    Edward      Lewis Bartlett   <NA>
## 10       87   house  R000282     Ralph     Julian   Rivers   <NA>
## # ... with 18,625 more rows, and 6 more variables: birthday <date>,
## #   state <chr>, party <chr>, incumbent <lgl>, termstart <date>, age <dbl>
```

# Descending Order

```r
arrange(congress_age, desc(congress))
```

```
## # A tibble: 18,635 x 13
##    congress chamber bioguide firstname middlename  lastname suffix
##       <int>   <chr>    <chr>     <chr>      <chr>     <chr>  <chr>
##  1      113   house  H000067     Ralph         M.      Hall   <NA>
##  2      113   house  D000355      John         D.   Dingell   <NA>
##  3      113   house  C000714      John       <NA>   Conyers    Jr.
##  4      113   house  S000480    Louise   McIntosh Slaughter   <NA>
##  5      113   house  R000053   Charles         B.    Rangel   <NA>
##  6      113   house  J000174       Sam     Robert   Johnson   <NA>
##  7      113   house  Y000031        C.    W. Bill     Young   <NA>
##  8      113   house  C000556    Howard       <NA>     Coble   <NA>
##  9      113   house  L000263    Sander         M.     Levin   <NA>
## 10      113   house  Y000033       Don         E.     Young   <NA>
## # ... with 18,625 more rows, and 6 more variables: birthday <date>,
## #   state <chr>, party <chr>, incumbent <lgl>, termstart <date>, age <dbl>
```

# Your Turn
1. Count the number of congress members from each party that are older than 80 at term start.
2. Arrange the result from above by the variable n.

# Using `select`

```r
select(congress_age, congress, chamber, party, age)
```

```
## # A tibble: 18,635 x 4
##    congress chamber party   age
##       <int>   <chr> <chr> <dbl>
##  1       80   house     D  85.9
##  2       80   house     D  83.2
##  3       80   house     D  80.7
##  4       80   house     R  78.8
##  5       80   house     R  78.3
##  6       80   house     R  78.0
##  7       80   house     R  77.9
##  8       80   house     D  76.8
##  9       80   house     R  76.0
## 10       80   house     R  75.8
## # ... with 18,625 more rows
```
…
# `starts_with` helper

```r
select(congress_age, starts_with('s'))
```

```
## # A tibble: 18,635 x 2
##    suffix state
##     <chr> <chr>
##  1   <NA>    TX
##  2   <NA>    NC
##  3   <NA>    IL
##  4   <NA>    NJ
##  5   <NA>    KY
##  6   <NA>    PA
##  7   <NA>    CA
##  8   <NA>    NY
##  9   <NA>    WI
## 10   <NA>    MA
## # ... with 18,625 more rows
```


# Contains helper

```r
select(congress_age, contains('name'))
```

```
## # A tibble: 18,635 x 3
##    firstname middlename  lastname
##        <chr>      <chr>     <chr>
##  1    Joseph  Jefferson Mansfield
##  2    Robert        Lee  Doughton
##  3    Adolph    Joachim    Sabath
##  4   Charles     Aubrey     Eaton
##  5   William       <NA>     Lewis
##  6     James         A. Gallagher
##  7   Richard     Joseph     Welch
##  8       Sol       <NA>     Bloom
##  9    Merlin       <NA>      Hull
## 10   Charles   Laceille   Gifford
## # ... with 18,625 more rows
```

# Colon

```r
select(congress_age, congress:birthday)
```

```
## # A tibble: 18,635 x 8
##    congress chamber bioguide firstname middlename  lastname suffix
##       <int>   <chr>    <chr>     <chr>      <chr>     <chr>  <chr>
##  1       80   house  M000112    Joseph  Jefferson Mansfield   <NA>
##  2       80   house  D000448    Robert        Lee  Doughton   <NA>
##  3       80   house  S000001    Adolph    Joachim    Sabath   <NA>
##  4       80   house  E000023   Charles     Aubrey     Eaton   <NA>
##  5       80   house  L000296   William       <NA>     Lewis   <NA>
##  6       80   house  G000017     James         A. Gallagher   <NA>
##  7       80   house  W000265   Richard     Joseph     Welch   <NA>
##  8       80   house  B000565       Sol       <NA>     Bloom   <NA>
##  9       80   house  H000943    Merlin       <NA>      Hull   <NA>
## 10       80   house  G000169   Charles   Laceille   Gifford   <NA>
## # ... with 18,625 more rows, and 1 more variables: birthday <date>
```

# Drop variables

```r
select(congress_age, -firstname, -state, -party, -incumbent, -chamber)
```

```
## # A tibble: 18,635 x 8
##    congress bioguide middlename  lastname suffix   birthday  termstart
##       <int>    <chr>      <chr>     <chr>  <chr>     <date>     <date>
##  1       80  M000112  Jefferson Mansfield   <NA> 1861-02-09 1947-01-03
##  2       80  D000448        Lee  Doughton   <NA> 1863-11-07 1947-01-03
##  3       80  S000001    Joachim    Sabath   <NA> 1866-04-04 1947-01-03
##  4       80  E000023     Aubrey     Eaton   <NA> 1868-03-29 1947-01-03
##  5       80  L000296       <NA>     Lewis   <NA> 1868-09-22 1947-01-03
##  6       80  G000017         A. Gallagher   <NA> 1869-01-16 1947-01-03
##  7       80  W000265     Joseph     Welch   <NA> 1869-02-13 1947-01-03
##  8       80  B000565       <NA>     Bloom   <NA> 1870-03-09 1947-01-03
##  9       80  H000943       <NA>      Hull   <NA> 1870-12-18 1947-01-03
## 10       80  G000169   Laceille   Gifford   <NA> 1871-03-15 1947-01-03
## # ... with 18,625 more rows, and 1 more variables: age <dbl>
```

# Reorder with `everything`

```r
select(congress_age, congress, chamber, incumbent, age, everything())
```

```
## # A tibble: 18,635 x 13
##    congress chamber incumbent   age bioguide firstname middlename
##       <int>   <chr>     <lgl> <dbl>    <chr>     <chr>      <chr>
##  1       80   house      TRUE  85.9  M000112    Joseph  Jefferson
##  2       80   house      TRUE  83.2  D000448    Robert        Lee
##  3       80   house      TRUE  80.7  S000001    Adolph    Joachim
##  4       80   house      TRUE  78.8  E000023   Charles     Aubrey
##  5       80   house     FALSE  78.3  L000296   William       <NA>
##  6       80   house     FALSE  78.0  G000017     James         A.
##  7       80   house      TRUE  77.9  W000265   Richard     Joseph
##  8       80   house      TRUE  76.8  B000565       Sol       <NA>
##  9       80   house      TRUE  76.0  H000943    Merlin       <NA>
## 10       80   house      TRUE  75.8  G000169   Charles   Laceille
## # ... with 18,625 more rows, and 6 more variables: lastname <chr>,
## #   suffix <chr>, birthday <date>, state <chr>, party <chr>,
## #   termstart <date>
```

# `rename` function

```r
rename(congress_age, first_name = firstname, last_name = lastname)
```

```
## # A tibble: 18,635 x 13
##    congress chamber bioguide first_name middlename last_name suffix
##       <int>   <chr>    <chr>      <chr>      <chr>     <chr>  <chr>
##  1       80   house  M000112     Joseph  Jefferson Mansfield   <NA>
##  2       80   house  D000448     Robert        Lee  Doughton   <NA>
##  3       80   house  S000001     Adolph    Joachim    Sabath   <NA>
##  4       80   house  E000023    Charles     Aubrey     Eaton   <NA>
##  5       80   house  L000296    William       <NA>     Lewis   <NA>
##  6       80   house  G000017      James         A. Gallagher   <NA>
##  7       80   house  W000265    Richard     Joseph     Welch   <NA>
##  8       80   house  B000565        Sol       <NA>     Bloom   <NA>
##  9       80   house  H000943     Merlin       <NA>      Hull   <NA>
## 10       80   house  G000169    Charles   Laceille   Gifford   <NA>
## # ... with 18,625 more rows, and 6 more variables: birthday <date>,
## #   state <chr>, party <chr>, incumbent <lgl>, termstart <date>, age <dbl>
```
…
# Using `mutate`

```r
congress_red <- select(congress_age, congress, chamber, state, party)

mutate(congress_red, 
       democrat = ifelse(party == 'D', 1, 0),
       num_democrat = sum(democrat)
       )
```

```
## # A tibble: 18,635 x 6
##    congress chamber state party democrat num_democrat
##       <int>   <chr> <chr> <chr>    <dbl>        <dbl>
##  1       80   house    TX     D        1        10290
##  2       80   house    NC     D        1        10290
##  3       80   house    IL     D        1        10290
##  4       80   house    NJ     R        0        10290
##  5       80   house    KY     R        0        10290
##  6       80   house    PA     R        0        10290
##  7       80   house    CA     R        0        10290
##  8       80   house    NY     D        1        10290
##  9       80   house    WI     R        0        10290
## 10       80   house    MA     R        0        10290
## # ... with 18,625 more rows
```
…
# `group_by`

```r
congress_grp <- group_by(congress_2, congress)

summarise(congress_grp, 
          num_democrat = sum(democrat),
          total = n(),
          prop_democrat = num_democrat / total
)
```

```
## # A tibble: 34 x 4
##    congress num_democrat total prop_democrat
##       <int>        <dbl> <int>         <dbl>
##  1       80          247   555     0.4450450
##  2       81          330   557     0.5924596
##  3       82          292   555     0.5261261
##  4       83          274   557     0.4919210
##  5       84          288   544     0.5294118
##  6       85          295   547     0.5393053
##  7       86          356   554     0.6425993
##  8       87          339   559     0.6064401
##  9       88          332   552     0.6014493
## 10       89          371   548     0.6770073
## # ... with 24 more rows
```
…
